@startuml
!include ../skins/mono-flat.iuml


(*) --> ===B6=== 
 ===B6=== --> "NOT RUNNING"
"NOT RUNNING" --> ===B0===
===B0=== --> "Zvolen AUTO mode"
===B0=== --> "Zvolen MANUAL mode"
===B0=== --> "Chyba motoru"
"Zvolen AUTO mode" --> ===B1===
"Zvolen MANUAL mode" -> ===B6=== 
"Chyba motoru" --> ===B6===
===B1=== -right-> "Neventilovat, nechladit"
===B1=== --> "Chladit?"  
===B1=== --> "Ventilovat?"  

"Neventilovat, nechladit" -> ===B6=== 
"Chladit?"--> ===B2===
"Ventilovat?"  --> ===B3===
===B3=== --> "Motor auta běží"
===B3=== --> "Motor auta neběží"
"Motor auta běží" --> ===B4===
"Motor auta neběží" --> ===B2===
===B4=== --> "Tlačítko alternátor dost silný AKTIVNÍ"
===B4=== --> "Tlačítko alternátor dost silný NEAKTIVNÍ"
"Tlačítko alternátor dost silný AKTIVNÍ" --> ===B5===
"Tlačítko alternátor dost silný NEAKTIVNÍ" --> ===B2===
===B5=== --> "60s trvající podpětí na bateriích"
===B5=== -right-> "Baterie OK"
"Baterie OK" --> ===B6===
"60s trvající podpětí na bateriích" -down-> ===B2===

===B2===--> "RUNNING"



@enduml