@startuml stop-weighing

!include ../../skins/mono-flat.iuml

start

:|= register |= value |
| ""3502"" | ""1"" |;
note right
Finishes current flock.
No data can be added to this flock.
end note

end

@enduml