@startuml

!include ../skins/mono-flat.iuml

start
partition Setup {
    :Write System Date & Time;
    :Write Configuration;

    if (Use Growth Curves) then (**YES**)
        :Write Flock Data;
    else (**NO**)
    endif
}

partition Operation {
    :Start Weighing;

    repeat
        fork
            :Read Scale Statistics;
            :Calculate Statistics;
        fork again
            :Read Scale Samples/Statistics;
            :Combine Data From Multiple Scales<
            :Calculate Statistics;
        end fork
    repeat while (Continue Weighing?) is (**YES**)

    :Stop Weighing;
}

end

@enduml